{
	"titles": [
		{
		"name": "Former Junior Golang Developer",
		"description": "Websensa"
		},
		{
		"name": "Snooker Player",
		"description": "Snooker.Zone Warsaw"
		},
		{
		"name": "Industrious Person",
		"description": "Wherever it is needed"
		}
	],
	"additionalInfo": [
		"I am willing to work in an environment which can benefit from my personality and abilities.",
		"My life-engine is powered by the need of constant self-development and sense of purpose."
	]
}

